python/IICE.vcd
$date
Thu Feb  9 14:39:45 2023
$end
$version
Identify 1.1
$end
$timescale
1 ns
$end
$comment
Written by QT debugger
$end
$scope module tx_rx_esistream_top $end
$var integer 32 cyc identify_cycle       $end
$var reg     1  clk identify_sampleclock $end
$scope module rtl $end
$scope module txrx_frame_checking_1 $end
$scope module rtl $end
$var reg 12 A data_out_12b_d[7][3] [11:0] $end
$var reg 12 B data_out_12b_d[7][2] [11:0] $end
$var reg 12 C data_out_12b_d[7][1] [11:0] $end
$var reg 12 D data_out_12b_d[7][0] [11:0] $end
$var reg 12 E data_out_12b_d[6][3] [11:0] $end
$var reg 12 F data_out_12b_d[6][2] [11:0] $end
$var reg 12 G data_out_12b_d[6][1] [11:0] $end
$var reg 12 H data_out_12b_d[6][0] [11:0] $end
$var reg 12 I data_out_12b_d[5][3] [11:0] $end
$var reg 12 J data_out_12b_d[5][2] [11:0] $end
$var reg 12 K data_out_12b_d[5][1] [11:0] $end
$var reg 12 L data_out_12b_d[5][0] [11:0] $end
$var reg 12 M data_out_12b_d[4][3] [11:0] $end
$var reg 12 N data_out_12b_d[4][2] [11:0] $end
$var reg 12 O data_out_12b_d[4][1] [11:0] $end
$var reg 12 P data_out_12b_d[4][0] [11:0] $end
$var reg 12 Q data_out_12b_d[3][3] [11:0] $end
$var reg 12 R data_out_12b_d[3][2] [11:0] $end
$var reg 12 S data_out_12b_d[3][1] [11:0] $end
$var reg 12 T data_out_12b_d[3][0] [11:0] $end
$var reg 12 U data_out_12b_d[2][3] [11:0] $end
$var reg 12 V data_out_12b_d[2][2] [11:0] $end
$var reg 12 W data_out_12b_d[2][1] [11:0] $end
$var reg 12 X data_out_12b_d[2][0] [11:0] $end
$var reg 12 Y data_out_12b_d[1][3] [11:0] $end
$var reg 12 Z data_out_12b_d[1][2] [11:0] $end
$var reg 12 AB data_out_12b_d[1][1] [11:0] $end
$var reg 12 BB data_out_12b_d[1][0] [11:0] $end
$var reg 12 CB data_out_12b_d[0][3] [11:0] $end
$var reg 12 DB data_out_12b_d[0][2] [11:0] $end
$var reg 12 EB data_out_12b_d[0][1] [11:0] $end
$var reg 12 FB data_out_12b_d[0][0] [11:0] $end
$upscope $end
$upscope $end
$upscope $end
$upscope $end
$enddefinitions $end
#0
1clk
b11111111111111111111111000000010 cyc
b011111111000 A
b001010110010 B
b001001011100 C
b011101000101 D
b010001000110 E
b000111000010 F
b010100000100 G
b101100010011 H
b011100110100 I
b001001010100 J
b001010111010 K
b100000001111 L
b010011110001 M
b000110111011 N
b010001011001 O
b101001100001 P
b100011000000 Q
b001100100101 R
b001000001101 S
b011001111001 T
b010110101011 U
b000111001100 V
b001111000010 W
b100110011010 X
b100110001011 Y
b001110110000 Z
b000111010110 AB
b010110111001 BB
b011001101111 CB
b001000000011 DB
b001100101110 EB
b100011010011 FB
#10
0clk
#20
1clk
b11111111111111111111111000000011 cyc
b001100100001 A
b100011000110 B
b110110101000 C
b110101000110 D
b011001100110 E
b110001000101 F
b111000101101 G
b101001010010 H
b001110101111 I
b100110000110 J
b110111110110 K
b110011010101 L
b010110100010 M
b101110100111 N
b111001000101 O
b101011111100 P
b001010101100 Q
b011111111001 R
b110101000100 S
b110110101100 T
b010011101100 U
b101011111001 V
b111000111110 W
b101110110011 X
b001001001110 Y
b011100101111 Z
b110011001100 AB
b110111110011 BB
b010001000010 CB
b101001000011 DB
b111000101101 EB
b110001001101 FB
#30
0clk
#40
1clk
b11111111111111111111111000000100 cyc
b111000101001 A
b110001011001 B
b011010000100 C
b001000010000 D
b110110110111 E
b100011100011 F
b001100111010 G
b001000001000 H
b111000111110 I
b101111000100 J
b010111000010 K
b000111011011 L
b110111111101 M
b100110100111 N
b001111000001 O
b000111010101 P
b110111101100 Q
b110011100001 R
b011101001001 S
b001001010110 T
b111000110001 U
b101001100010 V
b010001011011 W
b000110111001 X
b110110011000 Y
b110101010111 Z
b100000011000 AB
b001010111011 BB
b111001000101 CB
b101100010110 DB
b010100001100 EB
b000111000001 FB
#50
0clk
#60
1clk
b11111111111111111111111000000101 cyc
b010100011100 A
b000110111101 B
b010000110001 C
b101000101000 D
b001001100100 E
b001010100011 F
b011111010110 G
b110100111010 H
b010001110001 I
b000110110111 J
b010011010101 K
b101011101011 L
b001011000111 M
b001000111111 N
b011100001110 O
b110011000000 P
b010111011001 Q
b000111100010 R
b001110011010 S
b100101101111 T
b001101000001 U
b000111111010 V
b011001001011 W
b110000101101 X
b011010011010 Y
b001000010101 Z
b001100010000 AB
b100010100000 BB
b001111010011 CB
b000111001011 DB
b010110001110 EB
b101110011001 FB
#70
0clk
#80
1clk
b11111111111111111111111000000110 cyc
b010101110111 A
b101101111111 B
b111000111101 C
b101100110000 D
b100101010001 E
b110111100111 F
b110011110000 G
b011101100110 H
b011000110010 I
b110000100001 J
b111000110011 K
b101001111110 L
b100010001110 M
b110110011000 N
b110101100111 O
b100000110000 P
b010011000110 Q
b101011010100 R
b111000111011 S
b101111010111 T
b011111000011 U
b110100101011 V
b110110111111 W
b100011111001 X
b010000011101 Y
b101000010101 Z
b111000011011 AB
b110001101100 BB
b011011111111 CB
b110010101111 DB
b111000000001 EB
b100111000000 FB
#90
0clk
#100
1clk
b11111111111111111111111000000111 cyc
b111000001011 A
b100111001111 B
b001111100111 C
b000111001101 D
b101111101010 E
b010111101100 F
b000111100111 G
b001110000001 H
b110111001100 I
b100100010000 J
b001101010110 K
b000111110100 L
b110001111010 M
b011010110110 N
b001000011101 O
b001100000001 P
b111000110011 Q
b101010010101 R
b010010001001 S
b000110110111 T
b110100000000 U
b011101111010 V
b001001110101 W
b001010010001 X
b111001001000 Y
b101101001000 Z
b010101000000 AB
b000111000011 BB
b110101110000 CB
b100001000010 DB
b001011010101 EB
b001000111001 FB
#110
0clk
#120
1clk
b11111111111111111111111000001000 cyc
b001011100111 A
b001000101111 B
b011011100000 C
b110010011101 D
b000110110111 E
b010010101001 F
b101010111001 G
b111000110011 H
b001001111111 I
b001010000100 J
b011110100111 K
b110100011110 L
b000111000111 M
b010000000110 N
b101000000000 O
b111000011010 P
b001101100111 Q
b000111101011 R
b011000011010 S
b110000001000 T
b000111110001 U
b001101110011 V
b100100111011 W
b110111011010 X
b001111110111 Y
b000111001100 Z
b010101011001 AB
b101101101111 BB
b001000101000 CB
b001011110100 DB
b100001110010 EB
b110110001100 FB
#130
0clk
#140
1clk
b11111111111111111111111000001001 cyc
b100001011001 A
b110101110111 B
b110101111000 C
b100001011100 D
b101111111100 E
b111000111100 F
b101010101001 G
b010010011100 H
b100100101100 I
b110111010011 J
b110100001110 K
b011110010110 L
b101101010110 M
b111001000000 N
b101101100010 O
b010101001001 P
b011110010000 Q
b110100001101 R
b110111010100 S
b100100101110 T
b101010100010 U
b111000111000 V
b101111111101 W
b011000001100 X
b011011000011 Y
b110010001000 Z
b111000001100 AB
b100111101011 BB
b100111101110 CB
b111000010011 DB
b110010010000 EB
b011011001001 FB
#150
0clk
#160
1clk
b11111111111111111111111000001010 cyc
b110010100011 A
b011011100100 B
b001000110011 C
b001011100011 D
b100101001000 E
b001101111100 F
b000111100100 G
b011000000100 H
b110000011010 I
b011000011101 J
b000111101110 K
b001101101001 L
b101000000011 M
b010000001011 N
b000111000111 O
b010101001010 P
b110100011011 Q
b011110110001 R
b001010001010 S
b001001111001 T
b101011000101 U
b010010110001 V
b000110111001 W
b010010010101 X
b110110001010 Y
b100001111010 Z
b001011111011 AB
b001000100011 BB
b101101101011 CB
b010101100000 DB
b000111001001 EB
b001111110011 FB
#170
0clk
#180
1clk
b11111111111111111111111000001011 cyc
b000111001001 A
b001111100100 B
b100111001111 C
b111000001111 D
b001001101010 E
b011101110110 F
b110100000100 G
b110111100000 H
b000110111101 I
b010010000011 J
b101010010010 K
b111000111001 L
b001000011101 M
b011010101011 N
b110001111001 O
b111000011010 P
b000111111011 Q
b001101010000 R
b100100000111 S
b110111001001 T
b000111100110 U
b010111100111 V
b101111101000 W
b111000111010 X
b001000111010 Y
b001011011000 Z
b100000111011 AB
b110101110010 BB
b000111000011 CB
b010100110010 DB
b101101000100 EB
b111001000011 FB
#190
0clk
#200
1clk
b11111111111111111111111000001100 cyc
b101100101100 A
b111001000011 B
b101110000000 C
b010101111011 D
b110111000100 E
b110100110011 F
b011111001110 G
b001010010111 H
b101111010111 I
b111001000010 J
b101011011011 K
b010011000110 L
b110101100011 M
b110110010101 N
b100010010101 O
b001100000111 P
b101001110110 Q
b111000101100 R
b110000011111 S
b011000111110 T
b110011101111 U
b110111101001 V
b100101011011 W
b001110001011 X
b100110111111 Y
b111000000001 Z
b110010101111 AB
b011011111110 BB
b110001100110 CB
b111000011101 DB
b101000011100 EB
b010000100001 FB
#210
0clk
#220
1clk
b11111111111111111111111000001101 cyc
b101000110101 A
b010000110110 B
b000110111101 C
b010100011010 D
b011001001001 E
b000111111101 F
b001101000100 G
b100011110100 H
b100101110110 I
b001110011011 J
b000111011011 K
b010111010011 L
b011100010001 M
b001001001000 N
b001011000101 O
b100000100110 P
b101011101010 Q
b010011100100 R
b000110111001 S
b010001101100 T
b011111100100 U
b001010100110 V
b001001100011 W
b011101011000 X
b101110010011 Y
b010110010000 Z
b000111001101 AB
b001111010010 BB
b100010101110 CB
b001100010111 DB
b001000010101 EB
b011010010111 FB
#230
0clk
#240
1clk
b11111111111111111111111000001110 cyc
b001000001101 A
b011001111011 B
b110001011010 C
b111000101000 D
b010001010010 E
b101001100100 F
b111000101110 G
b110000110110 H
b001001010011 I
b011101000101 J
b110011100110 K
b110111101011 L
b001110111111 M
b100110011010 N
b110111111011 O
b110011000011 P
b000111011011 Q
b010110111101 R
b101110111001 S
b111000111011 T
b001100110010 U
b100011011010 V
b110110110111 W
b110100111011 X
b000110111100 Y
b010100000110 Z
b101100010101 AB
b111001000101 BB
b001010111011 CB
b100000010010 DB
b110101010111 EB
b110110100001 FB
#250
0clk
#260
1clk
b11111111111111111111111000001111 cyc
b110101000100 A
b110110101001 B
b100011001001 C
b001100101101 D
b111001000001 E
b101100000000 F
b010011111001 G
b000111000010 H
b110110101010 I
b110101001110 J
b011111111001 K
b001010110000 L
b111001000010 M
b101110101101 N
b010110101110 O
b000111011001 P
b110011010011 Q
b110111111001 R
b100110001001 S
b001110101110 T
b111000100101 U
b110001001001 V
b011001100110 W
b001000000110 X
b110001000111 Y
b111000101100 Z
b101001001000 AB
b010001001101 BB
b110111110111 CB
b110011010000 DB
b011100110110 EB
b001001001111 FB
#270
0clk
#280
1clk
b11111111111111111111111000010000 cyc
b011101000101 A
b001001010110 B
b001010101110 C
b011111110100 D
b001111000010 E
b000111001011 F
b010110101010 G
b101110101100 H
b011010000100 I
b001000001101 J
b001100100100 K
b100011000000 L
b010001100010 M
b000110110111 N
b010011110000 O
b101011111110 P
b100000010010 Q
b001010111111 R
b001001001100 S
b011100110000 T
b010100001100 U
b000110111111 V
b010001000000 W
b101001000100 X
b100011011101 Y
b001100110101 Z
b001000000100 AB
b011001101000 BB
b010111000001 CB
b000111011000 DB
b001110101101 EB
b100110000110 FB
#290
0clk
#300
1clk
b11111111111111111111111000010001 cyc
b001110011000 A
b100101101100 B
b110111101101 C
b110011011010 D
b011100010001 E
b110011000000 F
b110111111111 G
b100110101000 H
b010000110000 I
b101000101110 J
b111000011101 K
b110001100100 L
b011001001110 M
b110000101111 N
b111000101111 O
b101001101000 P
b001100010000 Q
b100010100110 R
b110110011111 S
b110101010001 T
b010110001010 U
b101110010011 V
b111000111101 W
b101100011011 X
b001010100100 Y
b011111011100 Z
b110100110110 AB
b110110111010 BB
b010011010011 CB
b101011100101 DB
b111000111111 EB
b101111000110 FB
#310
0clk
#320
1clk
b11111111111111111111111000010010 cyc
b111000111011 A
b101111010001 B
b010111010001 C
b000111011101 D
b110101101011 E
b100000101110 F
b001011001011 G
b001001000010 H
b111001000001 I
b101100110001 J
b010100011101 K
b000110111111 L
b110111000001 M
b100011111001 N
b001101000111 O
b000111111010 P
b111000010111 Q
b110001110001 R
b011010011100 S
b001000011000 T
b111000000111 U
b100110111110 V
b001111010101 W
b000111001101 X
b110111100001 Y
b110011110000 Z
b011101101001 AB
b001001100110 BB
b111000101111 CB
b101001111000 DB
b010001110101 EB
b000111000000 FB
#330
0clk
#340
1clk
b11111111111111111111111000010011 cyc
b010010000011 A
b000110111101 B
b010011000101 C
b101011001110 D
b001000100011 E
b001100000001 F
b100010001101 G
b110110010011 H
b001111011111 I
b000111001000 J
b010101111010 K
b101110000100 L
b001001101011 M
b001010001110 N
b011111000111 O
b110100100111 P
b010100110101 Q
b000111000000 R
b010000011010 S
b101000011000 T
b001011010110 U
b001000111010 V
b011011111100 W
b110010110100 X
b010111110111 Y
b000111100110 Z
b001110001001 AB
b100101010011 BB
b001101010101 CB
b000111111010 DB
b011000111000 EB
b110000100001 FB
#350
0clk
#360
1clk
b11111111111111111111111000010100 cyc
b011000011101 A
b110000001100 B
b111000111000 C
b101010001111 D
b100111111110 E
b111000011111 F
b110010000010 G
b011010110101 H
b011011100011 I
b110010100100 J
b111000001011 K
b100111011101 L
b100100111101 M
b110111011010 N
b110100000000 O
b011101111111 P
b010101011111 Q
b101101101011 R
b111001000000 S
b101101000011 T
b100001101111 U
b110110000111 V
b110101101110 W
b100001001000 X
b010010101100 Y
b101010111100 Z
b111000110110 AB
b101111101011 BB
b011110100101 CB
b110100011101 DB
b110111000111 EB
b100100010011 FB
#370
0clk
#380
1clk
b11111111111111111111111000010101 cyc
b110111010010 A
b100100101011 B
b001101101011 C
b000111110011 D
b101101011000 E
b010101001110 F
b000111000111 G
b010000001001 H
b110110000100 I
b100001101000 J
b001011101111 K
b001000110011 L
b101111111100 M
b011000001101 N
b000111100110 O
b001101110111 P
b111000001100 Q
b100111101111 R
b001111111001 S
b000111000101 T
b110010010001 U
b011011001101 V
b001000100110 W
b001011101100 X
b111000110110 Y
b101010101000 Z
b010010011000 AB
b000111000010 BB
b110100001100 CB
b011110010111 DB
b001001111110 EB
b001010000111 FB
#390
0clk
#400
1clk
b11111111111111111111111000010110 cyc
b001010001001 A
b001001111111 B
b011110001111 C
b110100001111 D
b000111000100 E
b010101001000 F
b101101011011 G
b111001000111 H
b001000110100 I
b001011100111 J
b100001011111 K
b110101111101 L
b000110110100 M
b010010010010 N
b101010101000 O
b111000111100 P
b001011111001 Q
b001000100100 R
b011011000110 S
b110010001100 T
b000111001000 U
b001111111000 V
b100111101001 W
b111000001111 X
b001101110111 Y
b000111101010 Z
b011000000101 AB
b101111111100 BB
b000111101110 CB
b001101100100 DB
b100100101000 EB
b110111010010 FB
#410
0clk
#420
1clk
b11111111111111111111111000010111 cyc
b100100001110 A
b110111000000 B
b110100100100 C
b011110101111 D
b110001110111 E
b111000010110 F
b101000000111 G
b010000010000 H
b100111010110 I
b111000010001 J
b110010100100 K
b011011100010 L
b101111100101 M
b111000111111 N
b101010111111 O
b010010110011 P
b100000111111 Q
b110101101110 R
b110110000110 S
b100001110100 T
b101100111100 U
b111000111110 V
b101101101011 W
b010101100011 X
b011101110100 Y
b110011111111 Z
b110111011011 AB
b100101000010 BB
b101010001111 CB
b111000110011 DB
b110000010000 EB
b011000100110 FB
#430
0clk
#440
1clk
b11111111111111111111111000011000 cyc
b110000100010 A
b011000111011 B
b000111111000 C
b001101010000 D
b100010010111 E
b001100001000 F
b001000011011 G
b011010110100 H
b101110001011 I
b010101111001 J
b000111001101 K
b001111101101 L
b100101011100 M
b001110001111 N
b000111100010 O
b010111101111 P
b110010110001 Q
b011100000100 R
b001000111111 S
b001011010000 T
b101000011100 U
b010000100000 V
b000110111011 W
b010100110011 X
b110100101010 Y
b011111000110 Z
b001010010110 AB
b001001101111 BB
b101011010110 CB
b010011000100 DB
b000110110101 EB
b010010000110 FB
#450
0clk
#460
1clk
b11111111111111111111111000011001 cyc
b000110111001 A
b010001110100 B
b101001111001 C
b111000111100 D
b001011000101 E
b100000100110 F
b110101101000 G
b110110011000 H
b000111000000 I
b010100010101 J
b101100101011 K
b111001000010 L
b001001100110 M
b011101011110 N
b110011110000 O
b110111100011 P
b000111001101 Q
b001111001100 R
b100110110100 S
b111000000001 T
b001000010011 U
b011010010110 V
b110001110000 W
b111000100011 X
b000111111100 Y
b001101000011 Z
b100011110110 AB
b110111000001 BB
b000111011110 CB
b010111001110 DB
b101111001111 EB
b111000111001 FB
#470
0clk
#480
1clk
b11111111111111111111111000011010 cyc
b101110111011 A
b111001000010 B
b101011101110 C
b010011011001 D
b110111111100 E
b110011001000 F
b011100011101 G
b001001000111 H
b110001010110 I
b111000100101 J
b101000110111 K
b010000111000 L
b110110110110 M
b110100111100 N
b011111101101 O
b001010101000 P
b101100010011 Q
b111000111101 R
b101110010110 S
b010110001100 T
b110101010101 U
b110110100000 V
b100010101011 W
b001100010100 X
b101001011100 Y
b111000101010 Z
b110000110111 AB
b011001010000 BB
b110011100001 CB
b110111101110 DB
b100101110110 EB
b001110100011 FB
#490
0clk
#500
1clk
b11111111111111111111111000011011 cyc
b100110001110 A
b001110101101 B
b000111011000 C
b010110111110 D
b010110101011 E
b000111010100 F
b001110111011 G
b100110101000 H
b100011000100 I
b001100100111 J
b001000001011 K
b011010000010 L
b011001101001 M
b001000001000 N
b001100110010 O
b100011011000 P
b101001001011 Q
b010001001001 R
b000110111010 S
b010100001000 T
b011100110000 U
b001001001100 V
b001010111101 W
b100000001101 X
b101100000010 Y
b010011110100 Z
b000110111011 AB
b010001010111 BB
b011111111100 CB
b001010101100 DB
b001001010100 EB
b011101000010 FB
#510
0clk
#520
1clk
b11111111111111111111111000011100 cyc
b001001000100 A
b011100100111 B
b110011010010 C
b110111111000 D
b010011101101 E
b101100000011 F
b111001000010 G
b101110110000 H
b001010101110 I
b011111110100 J
b110101001010 K
b110110101110 L
b010001000011 M
b101001001011 N
b111000100111 O
b110001001100 P
b001000000011 Q
b011001100001 R
b110001000101 S
b111000101000 T
b001110101111 U
b100110000111 V
b110111110110 W
b110011010111 X
b000111010001 Y
b010110100011 Z
b101110110001 AB
b111001000000 BB
b001100100100 CB
b100011000000 DB
b110110100111 EB
b110101010001 FB
#530
0clk
#540
1clk
b11111111111111111111111000011101 cyc
b110110011111 A
b110101011001 B
b100000011001 C
b001011000000 D
b111000101010 E
b101001100010 F
b010001100101 G
b000110110111 H
b110111110000 I
b110011100100 J
b011101001101 K
b001001011100 L
b111001000101 M
b101100011000 N
b010100001111 O
b000111000001 P
b110100110100 Q
b110110111010 R
b100011011111 S
b001100110010 T
b111000111101 U
b101110111011 V
b010110110111 W
b000111010111 X
b110011000001 Y
b110111111110 Z
b100110100110 AB
b001111000011 BB
b111000100110 CB
b110001011001 DB
b011010000101 EB
b001000001110 FB
#550
0clk
#560
1clk
b11111111111111111111111000011110 cyc
b011010011000 A
b001000010101 B
b001100010011 C
b100010101111 D
b001101000100 E
b000111110110 F
b011001001011 G
b110000110010 H
b010111011001 I
b000111010101 J
b001110011001 K
b100101110011 L
b001111010011 M
b000111001110 N
b010110010000 O
b101110010100 P
b011101100010 Q
b001001100001 R
b001010100010 S
b011111011000 T
b010001110000 U
b000110111001 V
b010011010111 W
b101011100111 X
b100000101100 Y
b001011000101 Z
b001001000010 AB
b011100001111 BB
b010100011100 CB
b000111000001 DB
b010000110011 EB
b101000110001 FB
#570
0clk
#580
1clk
b11111111111111111111111000011111 cyc
b010000011111 A
b101000011100 B
b111000011100 C
b110001101100 D
b011111000101 E
b110100101000 F
b110111000011 G
b100011111010 H
b010011000010 I
b101011010010 J
b111001000000 K
b101111011101 L
b011011110111 M
b110010101110 N
b111000000100 O
b100111000000 P
b001110000100 Q
b100101010110 R
b110111100100 S
b110011101101 T
b011000110101 U
b110000011000 V
b111000110001 W
b101001111100 X
b001100001011 Y
b100010001110 Z
b110110011000 AB
b110101100101 BB
b010101110110 CB
b101101111101 DB
b111001001100 EB
b101100110010 FB
#590
0clk
#600
1clk
b11111111111111111111111000100000 cyc
b111001001110 A
b101100111011 B
b010100110111 C
b000110111111 D
b110100000000 E
b011110000001 F
b001001111001 G
b001010010000 H
b111000110001 I
b101010010101 J
b010010001000 K
b000110111011 L
b110101110110 M
b100001000001 N
b001011011010 O
b001000110111 P
b111000111000 Q
b101111101000 R
b010111110001 S
b000111100010 T
b110111001011 U
b100100001101 V
b001101010111 W
b000111110011 X
b111000010100 Y
b110001111100 Z
b011010101110 AB
b001000011100 BB
b111000001110 CB
b100111010110 DB
b001111100110 EB
b000111000111 FB
#610
0clk
#620
1clk
b11111111111111111111111000100001 cyc
b001111110101 A
b000111000100 B
b010101011111 C
b101101100101 D
b000111100111 E
b001101110111 F
b100101000001 G
b110111011110 H
b001101100111 I
b000111110001 J
b011000011011 K
b110000001110 L
b001000101000 M
b001011110100 N
b100001110011 O
b110110000001 P
b010010010101 Q
b000110110000 R
b010010110011 S
b101010111100 T
b001001111001 U
b001010000111 V
b011110100111 W
b110100011010 X
b010101001010 Y
b000111000010 Z
b010000000100 AB
b101000000110 BB
b001011101011 CB
b001000101110 DB
b011011011011 EB
b110010011100 FB
#630
0clk
#640
1clk
b11111111111111111111111000100010 cyc
b011011001011 A
b110010001010 B
b111000010101 C
b100111110001 D
b101010100011 E
b111000111000 F
b110000000101 G
b011000000110 H
b011110001111 I
b110100001001 J
b110111011010 K
b100100101101 L
b100111101110 M
b111000011000 N
b110010010000 O
b011011001111 P
b011000000101 Q
b101111111011 R
b111000110110 S
b101010101100 T
b100100100100 U
b110111010100 V
b110100010010 W
b011110010101 X
b010101000101 Y
b101101010010 Z
b111001000110 AB
b101101010111 BB
b100001010111 CB
b110101111101 DB
b110110000000 EB
b100001011100 FB
#650
0clk
#660
1clk
b11111111111111111111111000100011 cyc
b110110000101 A
b100001110101 B
b001011111001 C
b001000100010 D
b101011000001 E
b010010110110 F
b000110101111 G
b010010010101 H
b110100101000 I
b011110101110 J
b001010000100 K
b001001110111 L
b101101110011 M
b010101100010 N
b000111001001 O
b001111111000 P
b110111011100 Q
b100101000011 R
b001101111010 S
b000111100110 T
b110000010001 U
b011000100000 V
b000111101111 W
b001101011111 X
b111000011010 Y
b101000001000 Z
b010000001111 AB
b000111000010 BB
b110010100100 CB
b011011100111 DB
b001000101111 EB
b001011101010 FB
#670
0clk
#680
1clk
b11111111111111111111111000100100 cyc
b001000110111 A
b001011010101 B
b100001000101 C
b110101110010 D
b000111100001 E
b010111101000 F
b101111101010 G
b111000111101 H
b000111110111 I
b001101010100 J
b100100010110 K
b110111001101 L
b000110111101 M
b010100110000 N
b101100111001 O
b111001001000 P
b001010010010 Q
b001001101001 R
b011101110011 S
b110011111111 T
b000110110100 U
b010010000110 V
b101010001110 W
b111000110100 X
b001100000111 Y
b001000011111 Z
b011010101111 AB
b110001111100 BB
b000111001001 CB
b001111100101 DB
b100111001100 EB
b111000001011 FB
#690
0clk
#700
1clk
b11111111111111111111111000100101 cyc
b100110111100 A
b111000000111 B
b110010110001 C
b011011111101 D
b110011110000 E
b110111100101 F
b100101011011 G
b001110001010 H
b101001111010 I
b111000110101 J
b110000101100 K
b011000111010 L
b110001101000 M
b111000100101 N
b101000010110 O
b010000100001 P
b100011110111 Q
b110110111101 R
b110100101010 S
b011111001010 T
b101111010001 U
b111000111100 V
b101011011000 W
b010011000011 X
b100000101010 Y
b110101101001 Z
b110110001111 AB
b100010010011 BB
b101100101010 CB
b111001000011 DB
b101110000111 EB
b010101110101 FB
#710
0clk
#720
1clk
b11111111111111111111111000100110 cyc
b101110011011 A
b010110001110 B
b000111010000 C
b001111010011 D
b011111011111 E
b001010100000 F
b001001100010 G
b011101100001 H
b101011110100 I
b010011011011 J
b000111000000 K
b010001101110 L
b100010101011 M
b001100001110 N
b001000010100 O
b011010011000 P
b110000101111 Q
b011001001101 R
b001000000001 S
b001100111111 T
b100101101111 U
b001110011011 V
b000111011110 W
b010111010010 X
b110011000110 Y
b011100010101 Z
b001001000010 AB
b001011001100 BB
b101000111001 CB
b010000110100 DB
b000111000101 EB
b010100011011 FB
#730
0clk
#740
1clk
b11111111111111111111111000100111 cyc
b000110110111 A
b010100000100 B
b101100010111 C
b111001000100 D
b001100110010 E
b100011100100 F
b110110110010 G
b110100111101 H
b000111010100 I
b010110111100 J
b101110111100 K
b111001000011 L
b001010111000 M
b100000010001 N
b110101011100 O
b110110011111 P
b000110111010 Q
b010001010011 R
b101001100000 S
b111000101010 T
b001001010100 U
b011101000011 V
b110011011100 W
b110111110010 X
b000111010110 Y
b001110111111 Z
b100110011100 AB
b110111111110 BB
b001000001010 CB
b011001111100 DB
b110001011000 EB
b111000101011 FB
#750
0clk
#760
1clk
b11111111111111111111111000101000 cyc
b110001001010 A
b111000101010 B
b101001001110 C
b010001001010 D
b111000101101 E
b110001001111 F
b011001101101 G
b001000000011 H
b110011001111 I
b110111110001 J
b100110001111 K
b001110101111 L
b110111111000 M
b110011011000 N
b011100110010 O
b001001001000 P
b101110101011 Q
b111000111110 R
b101100000011 S
b010011101111 T
b110110101011 U
b110101001010 V
b011111110100 W
b001010110100 X
b101011111011 Y
b111001000010 Z
b101110101000 AB
b010110100111 BB
b110101000110 CB
b110110101110 DB
b100011000111 EB
b001100100100 FB
#770
0clk
#780
1clk
b11111111111111111111111000101001 cyc
b100011011010 A
b001100110111 B
b001000001000 C
b011001101001 D
b010100000001 E
b000111000001 F
b010001000110 G
b101001001000 H
b100000011000 I
b001011000000 J
b001001001010 K
b011100101111 L
b010110111111 M
b000111010100 N
b001110101010 O
b100110010000 P
b100110100111 Q
b001111000000 R
b000111010011 S
b010110100111 T
b011010000000 U
b001000001011 V
b001100100010 W
b100011000001 X
b101001101000 Y
b010001011001 Z
b000111000001 AB
b010011101100 BB
b011101001101 CB
b001001011100 DB
b001010101100 EB
b011111110101 FB
#790
0clk
#800
1clk
b11111111111111111111111000101010 cyc
b001010100001 A
b011111100101 B
b110101000010 C
b110110110111 D
b010110001111 E
b101110011101 F
b111001000100 G
b101100011101 H
b001100010010 I
b100010101010 J
b110110100100 K
b110101011011 L
b010011011101 M
b101011100111 N
b111001000010 O
b101111000100 P
b001001000001 Q
b011100010011 R
b110010111100 S
b111000000001 T
b010000101111 U
b101000110101 V
b111000100011 W
b110001011101 X
b000111111101 Y
b011001001000 Z
b110000110011 AB
b111000101111 BB
b001110010010 CB
b100101110000 DB
b110111101111 EB
b110011101001 FB
#810
0clk
#820
1clk
b11111111111111111111111000101011 cyc
b110111101001 A
b110011110101 B
b011101100101 C
b001001100100 D
b111000000111 E
b100111000101 F
b001111010100 G
b000111001101 H
b111000100001 I
b110001110001 J
b011010011010 K
b001000011000 L
b111000110110 M
b101001110101 N
b010001101101 O
b000110111001 P
b110110010100 Q
b110101100001 R
b100000101001 S
b001011001011 T
b111001000011 U
b101100101111 V
b010100011111 W
b000110111101 X
b110100101111 Y
b110111000100 Z
b100011110111 AB
b001101000101 BB
b111001000001 CB
b101111010111 DB
b010111010101 EB
b000111100011 FB
#830
0clk
#840
1clk
b11111111111111111111111000101100 cyc
b010111110001 A
b000111100000 B
b001110001011 C
b100101010101 D
b001011011001 E
b001000110110 F
b011011110111 G
b110010110010 H
b010100110100 I
b000111000010 J
b010000011010 K
b101000010111 L
b001101010100 M
b000111110101 N
b011000110111 O
b110000100011 P
b011010101110 Q
b001000011011 R
b001100001101 S
b100010001010 T
b001111100011 U
b000111001010 V
b010101110000 W
b101101111010 X
b011101111001 Y
b001001101111 Z
b001010010010 AB
b011111000100 BB
b010001111111 CB
b000110111000 DB
b010011000011 EB
b101011010010 FB
#850
0clk
#860
1clk
b11111111111111111111111000101101 cyc
b010010101100 A
b101010111101 B
b111000111110 C
b101111101011 D
b100001110111 E
b110110001011 F
b110101111000 G
b100001001011 H
b010101100001 I
b101101110001 J
b111001000101 K
b101101000100 L
b011110101000 M
b110100100001 N
b110111001011 O
b100100010100 P
b010000001100 Q
b101000000010 R
b111000011001 S
b110010000000 T
b011011011000 U
b110010011101 V
b111000001110 W
b100111010111 X
b001101110110 Y
b100100110111 Z
b110111011010 AB
b110100001000 BB
b011000100000 CB
b110000001000 DB
b111000110011 EB
b101010010010 FB
#870
0clk
#880
1clk
b11111111111111111111111000101110 cyc
b111000111000 A
b101010101101 B
b010010011001 C
b000110110011 D
b110010010011 E
b011011001001 F
b001000100111 G
b001011111011 H
b111000010100 I
b100111101011 J
b001111111001 K
b000111000110 L
b110100010100 M
b011110010001 N
b001001111001 O
b001010001001 P
b111001001000 Q
b101101011010 R
b010101001100 S
b000111000001 T
b110101111010 U
b100001011101 V
b001011101011 W
b001000110001 X
b111000111000 Y
b101111111110 Z
b011000001001 AB
b000111101100 BB
b110111010011 CB
b100100101100 DB
b001101101011 EB
b000111101111 FB
#890
0clk
#900
1clk
b11111111111111111111111000101111 cyc
b001101111001 A
b000111100011 B
b011000001001 C
b101111111010 D
b000111000111 E
b001111110100 F
b100111101001 G
b111000010000 H
b001011111010 I
b001000011100 J
b011011001000 K
b110010010101 L
b000111110001 M
b001101100101 N
b100100101011 O
b110111010001 P
b010000001110 Q
b000110111110 R
b010101000011 S
b101101010010 T
b001000110001 U
b001011100011 V
b100001011001 W
b110101111110 X
b010010101011 Y
b000110110110 Z
b010010010111 AB
b101010100011 BB
b001010001100 CB
b001001111011 DB
b011110001100 EB
b110100010000 FB
#910
0clk
